﻿[
    {
        "_id":"c-10",
        "_parentId":"b-10",
        "_type":"component",
        "_component":"text",
        "_classes":"",
        "_layout":"full",
        "title":"Introdução",
        "displayTitle":"",
        "body":"As pessoas estão passando cada vez mais tempo nos dispositivos móveis atualmente.  Assim, o consumo de vídeo nos dispositivos também está aumentando exponencialmente. ",
        "instruction":"",
        "_pageLevelProgress": {
            "_isEnabled": true
        }
    },
    {
        "_id":"c-20",
        "_parentId":"b-20",
        "_type":"component",
        "_component":"framed-video",
        "_classes":"",
        "_layout":"left",
        "title":"Vídeo do Waterford Lux Resorts",
        "displayTitle":"",
        "body":"",
        "_mute":false,
        "_videoPosition":"top",
        "_videoPt":{"x":"80px","y":"0px"},
        "_componentHeight":"600px",
        "instruction":"",
        "_pageLevelProgress": {
          "_isEnabled": false
        },
        "_items": [
            {
                "video":  "<video controls poster='course/en/images/01_introduction/waterfordlux_poster.png' id='vid' width='290px' controls='controls'><source src='course/en/images/01_introduction/waterfordlux.mp4' type='video/mp4'></video>"
            }
        ]
    },
    {
        "_id":"c-21",
        "_parentId":"b-20",
        "_type":"component",
        "_component":"animate-message",
        "_classes":"",
        "_layout":"right",
        "title":"O que isso significa para os anunciantes?",
        "displayTitle":"",
        "body":"<br><br><h2>O que isso significa para os anunciantes?</h2>",
        "instruction":"",
        "titleAnimation":"transition.slideRightIn",
        "bodyAnimation":"transition.slideRightIn",
        "backgroundColor":"#ffffff,#ffffff,#ffffff",
        "_spacing":"10px",
        "_cornerRadius":"0px",
        "_pageLevelProgress": {
            "_isEnabled": true
        },
        "_items": [
            {
                "body":"<div style='padding-left:15px;padding-right:10px;padding-top:10px;'>O vídeo no celular está estourando: mais da metade de todas as visualizações de vídeo ocorre nos dispositivos móveis,<sup>1</sup> e o consumo de vídeos no celular está em franco crescimento no Facebook.</div>"
            },
            {
                "body":"<div style='padding-left:15px;padding-right:10px;padding-top:10px;'>Não é suficiente simplesmente usar seu conteúdo de comercial de TV (TVC) existente.  O ambiente móvel é diferente, portanto, se possível, o conteúdo deve ser criado para corresponder ao comportamento de consumo no celular.</div>"
            },
            {
                "body":"<div style='padding-left:15px;padding-right:10px;padding-top:10px;'>Crie conteúdo para o ambiente móvel, porque é onde seu público passa o tempo.</div>"
            }
        ]
    },
    {
        "_id":"c-30",
        "_parentId":"b-30",
        "_type":"component",
        "_component":"text",
        "_classes":"",
        "_layout":"full",
        "title":"",
        "displayTitle":"",
        "body":"Você pode ter um conteúdo de TVC existente, mas como colocá-lo no Facebook e no Instagram de modo que ainda seja eficiente e veicule a mensagem da sua marca?  Vamos entender melhor o ambiente móvel e saber por que colocar seu conteúdo de TVC diretamente no Facebook e no Instagram pode não produzir os melhores resultados.  Também examinaremos por que é necessário criar para essa experiência.",
        "instruction":"",
        "_pageLevelProgress": {
        "_isEnabled": false
        }
    },
    {
        "_id":"c-40",
        "_parentId":"b-40",
        "_type":"component",
        "_component":"text",
        "_classes":"",
        "_layout":"full",
        "title":"Como o conteúdo é consumido nos dispositivos móveis",
        "displayTitle":"Como o conteúdo é consumido nos dispositivos móveis",
        "body":"O ambiente móvel é rápido, frequente e tem o som desativado.",
        "instruction":"",
        "_pageLevelProgress": {
        "_isEnabled": true
        }
    },

    {
        "_id": "c-65",
        "_parentId": "b-65",
        "_type": "component",
        "_component": "text",
        "_classes": "",
        "_layout": "full",
        "title": "",
        "displayTitle": "",
        "body": "<h2>Rápido</h2><br>As pessoas consomem conteúdo de formas diferentes no dispositivo móvel.  Elas percorrem seus feeds rapidamente ao longo do dia.  Observamos que, geralmente, há uma desistência depois dos primeiros segundos de visualização do vídeo  Isso também é muito típico do comportamento no celular em geral.<br><br>No gráfico abaixo, a linha verde representa um arco de história típico de um TVC, enquanto que a linha branca representa o comportamento de “desistência” no celular. Se sua mensagem/produto principal estiver no final, quem saberá?",
        "instruction": "",
        "_pageLevelProgress": {
            "_isEnabled": false
        }
    },
    {
        "_id": "c-66",
        "_parentId": "b-66",
        "_type": "component",
        "_component": "text",
        "_classes": "",
        "_layout": "full",
        "title": "",
        "displayTitle": "",
        "body": "<h2>Som desativado</h2><br>Também sabemos que, na maioria dos casos, as pessoas passam o dia com seus telefones no modo silencioso.  O que isso significa para os anunciantes?  Se o espectador comum assiste apenas aos primeiros segundos do seu vídeo e com o som desativado, é bem provável que sua mensagem não chegue aos seus espectadores.",
        "instruction": "",
        "_pageLevelProgress": {
            "_isEnabled": false
        }
    },
    {
        "_id": "c-67",
        "_parentId": "b-67",
        "_type": "component",
        "_component": "text",
        "_classes": "",
        "_layout": "full",
        "title": "",
        "displayTitle": "",
        "body": "<h2>Frequente</h2><br>As pessoas verificam seus telefones várias vezes ao dia.  Ao longo do dia, elas podem acessar o Facebook, o Instagram, ler artigos e interagir com conteúdo.  Isso proporciona ao seu vídeo a oportunidade de aparecer mais e em mais lugares.",
        "instruction": "",
        "_pageLevelProgress": {
            "_isEnabled": false
        }
    },
    {
        "_id":"c-68",
        "_parentId":"b-68",
        "_type":"component",
        "_component":"text",
        "_classes":"",
        "_layout":"full",
        "title":"Consumo em dispositivos móveis",
        "displayTitle":"",
        "body":"<div class='wrapper'><div class='textWrap'><div class='textFloat'><div class='text' style='font:freight-sans-pro'>Mensagem principal</div></div><!-- textFloat end --></div><img src='course/en/images/01_introduction/mobile_consumption.png' style='width:100%;'></div><!-- wrapper end --><cite>Exemplo generalizado - apenas para ilustração</cite>",
        "instruction":"",
        "_pageLevelProgress": {
          "_isEnabled": false
        }
    },
    {
        "_id":"c-70",
        "_parentId":"b-70",
        "_type":"component",
        "_component":"text",
        "_classes":"",
        "_layout":"left",
        "title":"Criar para o dispositivo móvel",
        "displayTitle":"",
        "body":"<div style='font-size:22px; color:#FFFFFF; width:160px; text-align:center; line-height:32px; position:absolute; top:270px;left:157px;'><b>Conteúdo criado para o dispositivo móvel</b></div><div style='align:center;padding-left:100px;'><img src='course/en/images/01_introduction/mobile_content.png' width='260px;'></div>",
        "instruction":"",
        "_pageLevelProgress": {
          "_isEnabled": false
        }
    },
    {
        "_id":"c-71",
        "_parentId":"b-70",
        "_type":"component",
        "_component":"text",
        "_classes":"",
        "_layout":"right",
        "title":"",
        "displayTitle":"",
        "body":"<br><br>A lição aqui é que, embora haja desafios no uso dos seus ativos TVC para o celular, também há oportunidades.<br><br>Para aproveitar ao máximo seu orçamento de anúncio, considere planejar seu conteúdo para corresponder ao comportamento do consumidor.  Isso ajudará a veicular melhor a mensagem da sua marca e conseguir os resultados comerciais desejados.  Afinal, você não iria querer apresentar algo que sabe não estar otimizado para dar resultados e conseguir o máximo de seu gasto com anúncios, certo?",
        "instruction":"",
        "_pageLevelProgress": {
        "_isEnabled": false
        }
    },
    {
        "_id":"c-80",
        "_parentId":"b-80",
        "_type":"component",
        "_component":"text",
        "_classes":"",
        "_layout":"full",
        "title":"",
        "displayTitle":"",
        "body":"No próximo módulo, veremos algumas considerações de criativo para criar um conteúdo de vídeo especialmente para dispositivos móveis.  O módulo fará recomendações baseadas em pesquisas para ajudar você a desenvolver um novo conteúdo para dispositivos móveis.<br><br><br><h2>“E se eu já tiver ativos de TVC?”</h2><br>Ótimo!  Esse curso será perfeito para você.  Nos módulos a seguir, compartilharemos algumas considerações de criativo para adaptar seu conteúdo existente e otimizá-lo para dispositivos móveis.<br><br><hr><cite><sup>1</sup>Índice da rede visual da Cisco: artigo técnico Global Mobile Data Traffic Forecast Update, 2016 a 2021</cite>",
        "instruction":"",
        "_pageLevelProgress": {
            "_isEnabled": false
        }
    },
    {
        "_id": "c-90",
        "_parentId": "b-90",
        "_type": "component",
        "_component": "co-jump",
        "_classes": "color-test",
        "_preLinkBody": "Em seguida, veremos algumas ",
        "_linkBody": "Considerações de criativo para vídeos no feed móvel",
        "_postLinkBody": ".",
        "_link": "#/id/co-100",
        "_graphic": "adapt/css/assets/icon_nextPage.png",
        "_pageLevelProgress": {
            "_isEnabled": false
        }
    },



    {
        "_id":"c-100",
        "_parentId":"b-100",
        "_type":"component",
        "_component":"text",
        "_classes":"",
        "_layout":"full",
        "title":"Introdução",
        "displayTitle":"",
        "body":"No módulo anterior, compartilhamos algumas informações para ajudar você a entender o ambiente móvel e por que colocar seu conteúdo de TVC diretamente no Facebook e no Instagram pode não produzir os melhores resultados.  Sempre que possível (se o tempo e orçamento permitirem), considere criar conteúdo de vídeo especificamente concebido para o ambiente móvel.",
        "instruction":"",
        "_pageLevelProgress": {
            "_isEnabled": true
        }
    },
    {
        "_id":"c-101",
        "_parentId":"b-100",
        "_type":"component",
        "_component":"canvas-animation",
        "_classes":"",
        "_layout":"full",
        "title":"",
        "displayTitle":"",
        "animationName":"TestAnimation",
        "animation":"course/en/animations/testAnimation.js",
        "body":"<div style='text-align:center;font-size:20px;'>Crie o conteúdo móvel para complementar o conteúdo da TV e vice-versa.</div><br><div id='TestAnimation'></div>",
        "_resources": {
             "textStyle_1":{"font":"bold 22px freight-sans-pro","fill": "#FFFFFF","wordWrap": true,"wordWrapWidth":180,"align": "center","lineSpacing": -10},
             "textStyle_2":{"font":"bold 22px freight-sans-pro","fill": "#FFFFFF","wordWrap": true,"wordWrapWidth":180,"align": "center","lineSpacing": -10},
            "leftImage":"course/en/images/02_creative_considerations_for_video/tvc.png",
            "centerImage":"course/en/images/02_creative_considerations_for_video/plus.png",
            "rightImage":"course/en/images/01_introduction/mobile_content.png",
            "leftText":"Conteúdo criado para a televisão",
            "centerText":"",
            "rightText":"Conteúdo criado para dispositivos móveis"
        },
        "instruction":"",
        "_pageLevelProgress": {
        "_isEnabled": false
        }
    },
    {
        "_id":"c-120",
        "_parentId":"b-120",
        "_type":"component",
        "_component":"text",
        "_classes":"",
        "_layout":"full",
        "title":"",
        "displayTitle":"",
        "body":"E mais, criar conteúdo de vídeo especificamente para o celular não significa que ele deve custar os olhos da cara.  Para saber como criar ótimos vídeos de baixo custo para sua marca, confira o curso <i>Inspirações de criativos para empresas</i>.  Você pode ver como as empresas desenvolveram anúncios criativos e envolventes usando aplicativos simples de smartphone e desktop.",
        "instruction":""
    },
    {
        "_id":"c-130",
        "_parentId":"b-130",
        "_type":"component",
        "_component":"popup-body",
        "_classes":"",
        "_layout":"full",
        "title":"Considerações de criativo para vídeos no feed móvel",
        "displayTitle":"Considerações de criativo para vídeos no feed móvel",
        "body":"Clique em cada um dos ícones abaixo para ver as recomendações de criativo.<div style ='text-align:center'><div style='padding-top:60px;'><ul class='flex-container'><li class='flex-item'><div style='color:#a9a9a9;font-size:32px'><a href='#'><div class='popups' id=1><img src='course/en/images/02_creative_considerations_for_video/capture.png' alt=\"\"id ='1' max-height='100px' max-width='1005px'height='25%' width='100px'> </div></a></div> <font color='#808080'><div style='color:#000000;font-size:18px;padding-top:25px;'><div style='max-width:200px;'><b>CAPTURAR</b><br>a atenção rapidamente, em 15 segundos ou menos</div></font></div></li><li class='flex-item'><div style='color:#a9a9a9;font-size:32px'><a href='#'><div class='popups' id=2><img src='course/en/images/02_creative_considerations_for_video/sound.png' alt=\"\"id ='2' max-height='100px' max-width='100px'height='25%' width='100px'></div></a></div><div style='color:#000000;font-size:18px;padding-top:25px;'><font color='#808080'><div style='max-width:170px;'><b>PLANEJAR</b><br>para o som desligado, mas encantar com o som ligado</div></div></li><li class='flex-item'><div style='color:#a9a9a9;font-size:32px'><a href='#'><div class='popups' id=3><img src='course/en/images/02_creative_considerations_for_video/frame.png' alt=\"\"id ='3' max-height='100px' max-width='1005px'height='25%' width='100px'> </div></a></div> <font color='#808080'><div style='color:#000000;font-size:18px;padding-top:25px;'><div style='max-width:165px;'><b>ENQUADRAR</b><br>sua história visual e criar para o formato vertical</div></font></div></li><li class='flex-item'><div style='color:#a9a9a9;font-size:32px'><a href='#'><div class='popups' id=4><img src='course/en/images/02_creative_considerations_for_video/play.png' alt=\"\"id ='4' max-height='100px' max-width='100px'height='25%' width='100px'></div></a></div><div style='color:#000000;font-size:18px;padding-top:25px;'><font color='#808080'><div style='max-width:170px;'><b>EXPERIMENTAR</b><br>mais e testar com a Central de Criativos</div></div></li></ul>","popups":[{"title":"Chame a atenção rapidamente e consolide sua mensagem em 15 segundos ou menos","body":"As pessoas tomam decisões em uma fração de segundo sobre com qual conteúdo desejam se envolver quando estão navegando seus feeds, portanto, você deve chamar a atenção do público nos primeiros segundos. Considere usar movimentos e cortes rápidos, e apresentar sua marca/mensagem logo no início.  Para maximizar o impacto no celular, recomendamos a consolidação da mensagem em 15 segundos ou menos."}, {"title":"Planeje para o som desligado, mas encante com o som ligado","body":"Espere que a maioria das pessoas consumirá o conteúdo de vídeo no feed do dispositivo móvel sem som, portanto, planeje seu vídeo para comunicar com clareza nesse ambiente.  Expresse sua mensagem visualmente ou com palavras (textos, legendas, gráficos) para que as pessoas vejam, em vez de ouvir a mensagem principal.  Adicione som para melhorar a experiência de quem assiste ao vídeo com o som ativado."}, {"title":"Enquadre sua história visual e crie para o formato vertical","body":"A maneira como você conta visualmente uma história é importante.  Destaque os principais quadros na cena e crie surpresas visuais lidando com as dimensões ou alternando entre o primeiro e segundo planos da cena.  Otimize para o ambiente móvel produzindo vídeos maiores na vertical."}, {"title":"Experimente mais e teste com a Central de Criativos","body":"Não existe uma solução universal para construir marcas com vídeos para dispositivos móveis, portanto, experimente e veja o que funciona melhor para sua marca e público.  Use um ou diversos vídeos para contar uma história.  Seus vídeos podem ser longos ou curtos, conforme a necessidade. A atenção é um prêmio, portanto, conte sua história o mais rápido possível enquanto ainda transmite sua mensagem.  Verifique se você está usando o melhor desempenho do criativo testando continuamente.  A Central de Criativos (<a href='http://creativehub.fb.com' target='_blank'>creativehub.fb.com</a>) tem recursos que permitem experimentar mais, inspirar e colaborar."}],
        "instruction":"",
        "_pageLevelProgress": {
        "_isEnabled": true
        }
    },
    {
        "_id":"c-140",
        "_parentId":"b-140",
        "_type":"component",
        "_component":"text",
        "_classes":"",
        "_layout":"full",
        "title":"",
        "displayTitle":"",
        "body":"Saiba mais no curso do Blueprint: <i>Como ser bem-sucedido com vídeos em dispositivos móveis</i>.",
        "instruction":""
    },
    {
        "_id": "c-190",
        "_parentId": "b-190",
        "_type": "component",
        "_component": "co-jump",
        "_classes": "color-test",
        "_preLinkBody": "Em seguida, vejamos o programa",
        "_linkBody": "PockeTVC",
        "_postLinkBody": " e os conceitos que você pode aplicar.",
        "_link": "#/id/co-150",
        "_graphic": "adapt/css/assets/icon_nextPage.png",
        "_pageLevelProgress": {
            "_isEnabled": false
        }
    },



    {
        "_id":"c-200",
        "_parentId":"b-200",
        "_type":"component",
        "_component":"text",
        "_classes":"",
        "_layout":"full",
        "title":"Introdução",
        "displayTitle":"",
        "body":"O ideal seria ter um conteúdo criado especificamente para dispositivos móveis.  Porém, se não for possível criar um novo conteúdo, vejamos como você poderá aproveitar os ativos atuais da sua marca e otimizá-los para seu público móvel.<br><br>Como mencionado antes, as pessoas consomem vídeo no celular de modo diferente.  Digamos, por exemplo, que você tenha um ótimo comercial de TV de 30 segundos com uma história emocionante, trilha sonora e uma surpresa no final.  A maioria das pessoas percorre rapidamente o feed nos celulares com o som desativado e só assiste aos primeiros 10-15 segundos de qualquer vídeo.  Se sua mensagem ou produto principal for mostrado no final, quem saberá?",
        "instruction":"",
        "_pageLevelProgress": {
            "_isEnabled": true
        }
    },
    {
        "_id":"c-210",
        "_parentId":"b-210",
        "_type":"component",
        "_component":"text",
        "_classes":"",
        "_layout":"full",
        "title":"O que é o PockeTVC?",
        "displayTitle":"PockeTVC",
        "body":"<h2>O que é o PockeTVC?</h2><br>O PockeTVC (abreviação para pequenos comerciais de televisão) é um programa desenvolvido pela Creative Shop do Facebook  A Creative Shop é uma equipe de estrategistas de criativos que ajudam nossos parceiros do setor a liberar o potencial criativo de nossas plataformas.  Eles trabalharam com mais de 250 marcas e agências para liberar o potencial do PockeTVC.  Eles criaram este programa para ajudar você a adaptar seus ativos da TV ao ambiente móvel. O PockeTVC destaca os conceitos para otimizar os ativos que você já tem para o público móvel, de forma simples e com baixo custo.<br><br>A ideia é pegar os ativos de TV existentes e adequá-los ao ambiente móvel.  Estudos mostraram que quando o criativo é adaptado especificamente para o ambiente móvel, o reconhecimento da marca e a associação da mensagem são mais fortes.",
        "instruction":"",
        "_pageLevelProgress": {
            "_isEnabled": true
        }
    },
    {
        "_id":"c-221",
        "_parentId":"b-220",
        "_type":"component",
        "_component":"barGraph",
        "_classes":"",
        "title":"Gráfico de barras",
        "displayTitle":"",
        "body":"<b>Taxas de <br>Sucesso<br>do TVC</b>",
        "instruction":"",
        "_items": [
            {
                "leftGraphHeight":"68%",
                "leftText":"PockeTVC",
                "leftColor":"#a4d2d1",
                "rightGraphHeight":"42%",
                "rightText":"TVC original",
                "rightColor":"#dadada",
                "border":"",
                "headline":"RECONHECIMENTO DA MARCA",
                "height":"600px"
            },
            {
                "leftGraphHeight":"45%",
                "leftText":"PockeTVC",
                "leftColor":"#a4d2d1",
                "rightGraphHeight":"18%",
                "rightText":"TVC original",
                "rightColor":"#dadada",
                "border":"",
                "headline":"ASSOCIAÇÃO DA MENSAGEM",
                "height":"600px"
             }
         ]
    },
    {
        "_id":"c-230",
        "_parentId":"b-230",
        "_type":"component",
        "_component":"text",
        "_classes":"",
        "_layout":"full",
        "title":"Em que o PockeTVC pode ajudar?",
        "displayTitle":"",
        "body":"<h2>Em que o PockeTVC pode ajudar?</h2><br>O PockeTVC foi criado para ajudar a mover suas mensagens para o início e comunicá-las com eficácia no ambiente móvel.  Ele ensinará você a planejar seu conteúdo de vídeo com intenção, arte, clareza e maior objetividade. No módulo a seguir, você conhecerá conceitos para:<br><br><ul><li>Mover sua marca e mensagem para o início.</li><li>Usar texto e imagens para dar um suporte visual à sua mensagem.</li><li>Aproveitar ao máximo o espaço disponível e considerar enquadrar seu ativo.</li><li>Veicular sua mensagem completa em um intervalo de tempo ideal para os dispositivos móveis.</li><li>Experimentar com novas maneiras de contar uma história além do arco de narrativa tradicional.</li></ul>",
        "instruction":"",
        "_pageLevelProgress": {
            "_isEnabled": true
        }
    },
    {
        "_id":"c-240",
        "_parentId":"b-230",
        "_type":"component",
        "_component":"text",
        "_classes":"",
        "_layout":"full",
        "title":"Exemplo",
        "displayTitle":"",
        "body":"No exemplo abaixo, o TVC original tinha 30 segundos de duração.  É difícil manter a atenção das pessoas por tanto tempo em um ambiente móvel.  A marca foi apresentada de forma muito sutil nos primeiros segundos.  Então, se o espectador não notar a apresentação sutil da marca nos primeiros segundos, não verá a marca novamente até o final.",
        "instruction":"",
        "_pageLevelProgress": {
            "_isEnabled": true
        }
    },
    {
        "_id":"c-245",
        "_parentId":"b-235",
        "_type":"component",
        "_component":"text",
        "_classes":"",
        "_layout":"full",
        "title":"Título",
        "displayTitle":"",
        "body":"<div class='leftDiv3colText'>TVC original</div><!-- leftDiv3colText end --><div class='centerDiv3colText'>Feed móvel<br>otimizado (16:9)</div><!-- centerDiv3colText end --><div class='rightDiv3colText'>Feed móvel<br>otimizado (1:1)</div><!-- rightDiv3colText end -->",
        "instruction":"",
        "_pageLevelProgress": {
            "_isEnabled": false
        }
    },
    {
        "_id":"c-446",
        "_parentId":"b-240",
        "_type":"component",
        "_component":"media",
        "_classes":"",
        "_layout":"full",
        "title":"Formas de enquadrar o vídeo",
        "displayTitle": "",
        "body": "",
        "instruction": "",
        "_setCompletionOn":"inview",
        "_useClosedCaptions":false,
        "_media": {
            "width":"768",
                "height":"431",
                "mp4": "course/en/images/03_pocketvc/redbull.mp4"
        },
        "_playerOptions": {
            "poster": "course/en/images/03_pocketvc/redbull_poster.png",
            "showPosterWhenEnded": false,
            "defaultVideoWidth": 768,
            "defaultVideoHeight": 431,
            "videoWidth": -1,
            "videoHeight": -1,
            "defaultAudioWidth": 768,
            "defaultAudioHeight": 30,
            "defaultSeekBackwardInterval": "(media.duration * 0.05)",
            "defaultSeekForwardInterval": "(media.duration * 0.05)",
            "audioWidth": -1,
            "audioHeight": -1,
            "startVolume": 0.8,
            "loop": false,
            "autoRewind": true,
            "enableAutosize": true,
            "alwaysShowHours": false,
            "showTimecodeFrameCount": false,
            "framesPerSecond": 25,
            "autosizeProgress" : true,
            "alwaysShowControls": true,
            "hideVideoControlsOnLoad": false,
            "clickToPlayPause": true,
            "iPadUseNativeControls": false,
            "iPhoneUseNativeControls": false,
            "AndroidUseNativeControls": false,
            "features": ["playpause","current","progress","duration","tracks","volume","fullscreen"],
            "isVideo": true,
            "enableKeyboard": true,
            "pauseOtherPlayers": true,
            "startLanguage": "",
            "tracksText": "mejs.i18n.t('Captions/Subtitles')",
            "hideCaptionsButtonWhenEmpty": true,
            "toggleCaptionsButtonWhenOnlyOne": false,
            "slidesSelector": "",
            "autoPlay": true
        },
        "_pageLevelProgress": {
          "_isEnabled": false
        }
    },
    {
        "_id":"c-250",
        "_parentId":"b-250",
        "_type":"component",
        "_component":"text",
        "_classes":"",
        "_layout":"full",
        "title":"Título",
        "displayTitle":"",
        "body":"Para otimizar seu vídeo para o feed móvel, a Red Bull recriou o vídeo movendo a marca e a mensagem para o início.  Eles cortaram o vídeo existente para ficar bem mais curto e conseguiram mostrar sua marca por três vezes.  Também expandiram o vídeo original de 16:9 para uma proporção de 1:1, de modo a aproveitar o espaço.  Fazendo isso, eles conseguiram contar uma história muito mais cativante e visual, aproveitando e otimizando os ativos existentes.",
        "instruction":"",
        "_pageLevelProgress": {
            "_isEnabled": false
        }
    },
    {
        "_id":"c-260",
        "_parentId":"b-260",
        "_type":"component",
        "_component":"text",
        "_classes":"",
        "_layout":"full",
        "title":"Título",
        "displayTitle":"",
        "body":"No próximo módulo, compartilharemos algumas coisas simples e práticas que você pode fazer para otimizar seu comercial de TV para o Facebook e o Instagram.",
        "instruction":"",
        "_pageLevelProgress": {
            "_isEnabled": false
        }
    },
    {
        "_id": "c-290",
        "_parentId": "b-290",
        "_type": "component",
        "_component": "co-jump",
        "_classes": "color-test",
        "_preLinkBody": "Em seguida, veremos ",
        "_linkBody": "Como aplicar a produção às considerações de criativo",
        "_postLinkBody": ".",
        "_link": "#/id/co-200",
        "_graphic": "adapt/css/assets/icon_nextPage.png",
        "_pageLevelProgress": {
            "_isEnabled": false
        }
    },


    {
        "_id":"c-300",
        "_parentId":"b-300",
        "_type":"component",
        "_component":"text",
        "_classes":"",
        "_layout":"full",
        "title":"Introdução",
        "displayTitle":"",
        "body":"Neste módulo, veremos como você pode recriar e adaptar seu conteúdo de TV de modo que ainda tenha impacto no público na experiência móvel.  Vejamos algumas maneiras simples de otimizar o comercial de televisão no Facebook e no Instagram, para que você possa comunicar com eficiência a mensagem da sua marca no ambiente móvel.",
        "instruction":"",
        "_pageLevelProgress": {
            "_isEnabled": true
        }
    },
    {
        "_id":"c-310",
        "_parentId":"b-310",
        "_type":"component",
        "_delay":"200",
        "_color":"#F8F8F8",
        "_classes":"",
        "_component":"arrowbox",
        "_layout":"full",
        "title":"Marca e mensagem",
        "displayTitle":"",
        "body":"<div style='margin-left:5%; margin-right:5%; height:100%; color:#000000;'><h2>Marca e mensagem</h2><br>Ao criar conteúdo de vídeo para sua marca, verifique se a marca pode ser reconhecida e se sua mensagem é veiculada claramente.<br><br><ul><li><b>Inclua sua marca no início</b><br>Quanto mais cedo você colocar a marca no vídeo e quanto mais clara deixar a mensagem, melhor. Muitos vídeos no celular têm um desempenho abaixo do esperado porque a mensagem não é clara, a apresentação da marca não está nítida ou o espectador simplesmente não sabe o que fazer depois.</li><br><li><b>Lembre-se de que a apresentação da marca é mais do que um simples logotipo</b><br>Seja um logotipo, combinação de cores ou estilo, deve ser algo claramente exclusivo da sua marca.</li><br><li><b>Reforce a mensagem da campanha visualmente</b><br>Foque em transmitir as informações sem palavras. Use imagens, movimento e efeitos visuais explicativos para transmitir sua mensagem.</li><br><li><b>Defina a cena rapidamente</b> <br>A maioria dos comerciais de TV demora muito para definir o contexto. No ambiente móvel, é importante chamar a atenção imediatamente e fazer com que as pessoas entrem diretamente no clima.</li></ul></div>",
        "_popupBody":"",
        "_popupTitle":"",
        "instruction":"",
        "_pageLevelProgress": {
            "_isEnabled": true
        }
    },
    {
        "_id":"c-311",
        "_parentId":"b-310",
        "_type":"component",
        "_component":"text",
        "_classes":"",
        "_layout":"full",
        "title":"Bose",
        "displayTitle":"",
        "body":"Vejamos o TVC original da Bose e o vídeo otimizado para dispositivos móveis.  <br><br>A Bose desejava chamar atenção na campanha. A marca cortou um anúncio de TV de 60 segundos para criar um clipe de áudio de dez segundos com quadros que se alternavam entre imagens de alguém usando fones de ouvido e imagens dos produtos.",
        "instruction":"",
        "_pageLevelProgress": {
            "_isEnabled": false
        }
    },
    {
        "_id":"c-311a",
        "_parentId":"b-312",
        "_type":"component",
        "_component":"text",
        "_classes":"",
        "_layout":"full",
        "title":"Título",
        "displayTitle":"",
        "body":"<div class='leftDiv3colText textPaddingRight'>TVC original</div><!-- leftDiv3colText end --><div class='centerDiv3colText'>Vídeo vertical otimizado para<br>dispositivos móveis (10 s)</div><!-- centerDiv3colText end --><div class='rightDiv3colText textPaddingLeft'>Vídeo em tela dividida otimizado <br>para dispositivos móveis (10 s)</div><!-- rightDiv3colText end -->",
        "instruction":"",
        "_pageLevelProgress": {
            "_isEnabled": false
        }
    },
    {
        "_id":"c-312",
        "_parentId":"b-315",
        "_type":"component",
        "_component":"media",
        "_classes":"",
        "_layout":"full",
        "title":"",
        "displayTitle": "",
        "body": "",
        "instruction": "",
        "_setCompletionOn":"inview",
        "_useClosedCaptions":false,
        "_media": {
            "width":"768",
                "height":"431",
                "mp4": "course/en/images/04_applying_craft/bose.mp4"
        },
        "_playerOptions": {
            "poster": "course/en/images/04_applying_craft/bose_poster.png",
            "showPosterWhenEnded": false,
            "defaultVideoWidth": 768,
            "defaultVideoHeight": 431,
            "videoWidth": -1,
            "videoHeight": -1,
            "defaultAudioWidth": 768,
            "defaultAudioHeight": 30,
            "defaultSeekBackwardInterval": "(media.duration * 0.05)",
            "defaultSeekForwardInterval": "(media.duration * 0.05)",
            "audioWidth": -1,
            "audioHeight": -1,
            "startVolume": 0.8,
            "loop": false,
            "autoRewind": true,
            "enableAutosize": true,
            "alwaysShowHours": false,
            "showTimecodeFrameCount": false,
            "framesPerSecond": 25,
            "autosizeProgress" : true,
            "alwaysShowControls": true,
            "hideVideoControlsOnLoad": false,
            "clickToPlayPause": true,
            "iPadUseNativeControls": false,
            "iPhoneUseNativeControls": false,
            "AndroidUseNativeControls": false,
            "features": ["playpause","current","progress","duration","tracks","volume","fullscreen"],
            "isVideo": true,
            "enableKeyboard": true,
            "pauseOtherPlayers": true,
            "startLanguage": "",
            "tracksText": "mejs.i18n.t('Captions/Subtitles')",
            "hideCaptionsButtonWhenEmpty": true,
            "toggleCaptionsButtonWhenOnlyOne": false,
            "slidesSelector": "",
            "autoPlay": true
        },
        "_pageLevelProgress": {
          "_isEnabled": false
        }
    },
    {
        "_id":"c-313",
        "_parentId":"b-315",
        "_type":"component",
        "_component":"text",
        "_classes":"",
        "_layout":"full",
        "title":"",
        "displayTitle":"",
        "body":"<br>",
        "instruction":""
    },
    {
        "_id":"c-320",
        "_parentId":"b-320",
        "_type":"component",
        "_delay":"200",
        "_color":"#F8F8F8",
        "_classes":"",
        "_component":"arrowbox",
        "_layout":"full",
        "title":"Tipografia e legendas",
        "displayTitle":"",
        "body":"<div style='margin-left:5%; margin-right:5%; height:100%; color:#000000;'><h2>Tipografia e legendas</h2><br>Como a maioria dos telespectadores provavelmente assistirá ao vídeo com o som desativado, considere integrar texto e imagens para veicular sua mensagem, em vez de contar apenas com o áudio e diálogos.<br><br>Ao desenvolver seu vídeo, pense em como você pode transmitir sua mensagem com e sem o uso do som.  Projete para o som desativado (usando tipografia ou legendas), mas encante com o som ativado.<br><br><ul><li><b>Crie interesse visual</b><br>Use infográficos e elementos criativos para dar vida à sua história.</li><br><li><b>O contexto é tudo</b><br>Para tornar sua mensagem significativa, oriente as pessoas rapidamente. Ajude a informar as pessoas que podem não estar familiarizadas com o conceito usando uma mensagem de abertura clara.</li><br><li><b>Crie uma capa para sua história</b><br>É uma forma simples de adicionar palavras ou contexto que provavelmente seriam transmitidos por áudio em um comercial de TV.</li></ul></div>",
        "_popupBody":"",
        "_popupTitle":"",
        "instruction":"",
        "_pageLevelProgress": {
            "_isEnabled": true
        }
    },
    {
        "_id":"c-321",
        "_parentId":"b-320",
        "_type":"component",
        "_component":"text",
        "_classes":"",
        "_layout":"full",
        "title":"Camaro",
        "displayTitle":"",
        "body":"O comercial de TV original do novo Camaro SS tinha quase dois minutos de duração e só apresentava a mensagem principal depois de 69 segundos. No anúncio de vídeo no celular, o produto foi apresentado no início. Também adicionamos uma contagem regressiva e infográficos para chamar atenção para os recursos do carro.",
        "instruction":"",
        "_pageLevelProgress": {
            "_isEnabled": false
        }
    },
    {
        "_id":"c-323",
        "_parentId":"b-323",
        "_type":"component",
        "_component":"text",
        "_classes":"",
        "_layout":"full",
        "title":"Título",
        "displayTitle":"",
        "body":"<div class='leftDiv2colText textPaddingRight'>TVC original</div><!-- leftDiv2colText end --><div class='rightDiv2colText textPaddingLeft'>Otimizado para dispositivos móveis</div><!-- rightDiv2colText end -->",
        "instruction":"",
        "_pageLevelProgress": {
            "_isEnabled": false
        }
    },
    {
        "_id":"c-325",
        "_parentId":"b-325",
        "_type":"component",
        "_component":"media",
        "_classes":"",
        "_layout":"full",
        "title":"",
        "displayTitle": "",
        "body": "",
        "instruction": "",
        "_setCompletionOn":"inview",
        "_useClosedCaptions":false,
        "_media": {
            "width":"768",
                "height":"431",
                "mp4": "course/en/images/04_applying_craft/camaro.mp4"
        },
        "_playerOptions": {
            "poster": "course/en/images/04_applying_craft/camaro_poster.png",
            "showPosterWhenEnded": false,
            "defaultVideoWidth": 768,
            "defaultVideoHeight": 431,
            "videoWidth": -1,
            "videoHeight": -1,
            "defaultAudioWidth": 768,
            "defaultAudioHeight": 30,
            "defaultSeekBackwardInterval": "(media.duration * 0.05)",
            "defaultSeekForwardInterval": "(media.duration * 0.05)",
            "audioWidth": -1,
            "audioHeight": -1,
            "startVolume": 0.8,
            "loop": false,
            "autoRewind": true,
            "enableAutosize": true,
            "alwaysShowHours": false,
            "showTimecodeFrameCount": false,
            "framesPerSecond": 25,
            "autosizeProgress" : true,
            "alwaysShowControls": true,
            "hideVideoControlsOnLoad": false,
            "clickToPlayPause": true,
            "iPadUseNativeControls": false,
            "iPhoneUseNativeControls": false,
            "AndroidUseNativeControls": false,
            "features": ["playpause","current","progress","duration","tracks","volume","fullscreen"],
            "isVideo": true,
            "enableKeyboard": true,
            "pauseOtherPlayers": true,
            "startLanguage": "",
            "tracksText": "mejs.i18n.t('Captions/Subtitles')",
            "hideCaptionsButtonWhenEmpty": true,
            "toggleCaptionsButtonWhenOnlyOne": false,
            "slidesSelector": "",
            "autoPlay": true
        },
        "_pageLevelProgress": {
          "_isEnabled": false
        }
    },
    {
        "_id":"c-326",
        "_parentId":"b-325",
        "_type":"component",
        "_component":"text",
        "_classes":"",
        "_layout":"full",
        "title":"",
        "displayTitle":"",
        "body":"<br>",
        "instruction":""
    },
    {
        "_id":"c-330",
        "_parentId":"b-330",
        "_type":"component",
        "_delay":"200",
        "_color":"#F8F8F8",
        "_classes":"",
        "_component":"arrowbox",
        "_layout":"full",
        "title":"Cortes e proporções",
        "displayTitle":"",
        "body":"<div style='margin-left:5%; margin-right:5%; height:100%; color:#000000;'><h2>Cortes e proporções</h2><br>Enquadre seu ativo para aproveitar ao máximo o conteúdo e o espaço.<br><br><ul><li><b>Otimize suas proporções para dispositivos móveis</b><br> Os vídeos quadrados e verticais geralmente têm um desempenho melhor nos dispositivos móveis. As pessoas não precisam virar os telefones para desfrutar da experiência completa. Recomendamos uma proporção de 4:5 para o Instagram e de 2:3 para feed do Facebook.</li><br><li><b>Experimente com grades e imagens empilhadas</b><br>A tela dos dispositivos móveis é pequena, no entanto, há muitas maneiras de usá-la. Experimente dividir a tela para mostrar duas ou mais histórias paralelas ao mesmo tempo.</li><br><li><b>Seja claro sobre seu benefício</b><br> Comece com uma mensagem focada no que você está oferecendo. Melhore os elementos visuais do seu produto ou promoção.</li></ul></div>",
        "_popupBody":"",
        "_popupTitle":"",
        "instruction":"",
        "_pageLevelProgress": {
            "_isEnabled": true
        }
    },
    {
        "_id":"c-331",
        "_parentId":"b-330",
        "_type":"component",
        "_component":"text",
        "_classes":"",
        "_layout":"full",
        "title":"Coca Cola",
        "displayTitle":"",
        "body":"A Coca Cola experimentou grades e usou cenas complementares para gerar uma ligação mais forte/rápida entre a ocasião (comida) e o produto (Coca Cola).",
        "instruction":"",
        "_pageLevelProgress": {
            "_isEnabled": false
        }
    },
    {
        "_id":"c-331a",
        "_parentId":"b-330",
        "_type":"component",
        "_component":"text",
        "_classes":"",
        "_layout":"full",
        "title":"Título",
        "displayTitle":"",
        "body":"<div class='leftDiv3colText textPaddingRight'>TVC original</div><!-- leftDiv3colText end --><div class='centerDiv3colText'>Otimizado para dispositivos móveis<br>(19 s)</div><!-- centerDiv3colText end --><div class='rightDiv3colText textPaddingLeft'>Vídeo vertical <br>(6 s)</div><!-- rightDiv3colText end -->",
        "instruction":"",
        "_pageLevelProgress": {
            "_isEnabled": false
        }
    },
    {
        "_id":"c-332",
        "_parentId":"b-335",
        "_type":"component",
        "_component":"media",
        "_classes":"",
        "_layout":"full",
        "title":"",
        "displayTitle": "",
        "body": "",
        "instruction": "",
        "_setCompletionOn":"inview",
        "_useClosedCaptions":false,
        "_media": {
            "width":"768",
                "height":"431",
                "mp4": "course/en/images/04_applying_craft/coke.mp4"
        },
        "_playerOptions": {
            "poster": "course/en/images/04_applying_craft/coke_poster.png",
            "showPosterWhenEnded": false,
            "defaultVideoWidth": 768,
            "defaultVideoHeight": 431,
            "videoWidth": -1,
            "videoHeight": -1,
            "defaultAudioWidth": 768,
            "defaultAudioHeight": 30,
            "defaultSeekBackwardInterval": "(media.duration * 0.05)",
            "defaultSeekForwardInterval": "(media.duration * 0.05)",
            "audioWidth": -1,
            "audioHeight": -1,
            "startVolume": 0.8,
            "loop": false,
            "autoRewind": true,
            "enableAutosize": true,
            "alwaysShowHours": false,
            "showTimecodeFrameCount": false,
            "framesPerSecond": 25,
            "autosizeProgress" : true,
            "alwaysShowControls": true,
            "hideVideoControlsOnLoad": false,
            "clickToPlayPause": true,
            "iPadUseNativeControls": false,
            "iPhoneUseNativeControls": false,
            "AndroidUseNativeControls": false,
            "features": ["playpause","current","progress","duration","tracks","volume","fullscreen"],
            "isVideo": true,
            "enableKeyboard": true,
            "pauseOtherPlayers": true,
            "startLanguage": "",
            "tracksText": "mejs.i18n.t('Captions/Subtitles')",
            "hideCaptionsButtonWhenEmpty": true,
            "toggleCaptionsButtonWhenOnlyOne": false,
            "slidesSelector": "",
            "autoPlay": true
        },
        "_pageLevelProgress": {
          "_isEnabled": false
        }
    },
    {
        "_id":"c-336",
        "_parentId":"b-335",
        "_type":"component",
        "_component":"text",
        "_classes":"",
        "_layout":"full",
        "title":"",
        "displayTitle":"",
        "body":"<br>",
        "instruction":""
    },
    {
        "_id":"c-340",
        "_parentId":"b-340",
        "_type":"component",
        "_delay":"200",
        "_color":"#F8F8F8",
        "_classes":"",
        "_component":"arrowbox",
        "_layout":"full",
        "title":"Duração",
        "displayTitle":"",
        "body":"<div style='margin-left:5%; margin-right:5%; height:100%; color:#000000;'><h2>Duração</h2><br>A atenção é conquistada, portanto, coloque sua ação no início e mantenha a atenção em toda duração.<br><br><ul><li><b>Experimente com anúncios mais curtos</b><br>Corte seu ativo para conseguir uma duração otimizada enquanto mantém sua mensagem.  Selecione os principais temas para conciliar toda a mensagem com eficiência e em menos tempo.</li><br><li><b>Comece com o tema mais intrigante</b><br>Ao cortar seu vídeo para o ambiente móvel, considere cortar para a parte mais importante. Selecione um ou dois temas principais para conciliar toda a mensagem com eficiência e em menos tempo.</li><br><li><b>Use diversas vinhetas curtas com a mesma revelação final</b><br>É uma boa alternativa para os comerciais de TV mais longos. Se seu anúncio de TV tiver muito material bom e for difícil de reduzir, experimente dividi-lo em uma minissérie de anúncios curtos terminando com a mesma mensagem clara.</li></ul></div>",
        "_popupBody":"",
        "_popupTitle":"",
        "instruction":"",
        "_pageLevelProgress": {
            "_isEnabled": true
        }
    },
    {
        "_id":"c-341",
        "_parentId":"b-340",
        "_type":"component",
        "_component":"text",
        "_classes":"",
        "_layout":"full",
        "title":"Samsung",
        "displayTitle":"",
        "body":"Neste exemplo, a Samsung criou diferentes capítulos ou cenas com o conteúdo de TVC original.   Cada corte iniciava com a marca e o logotipo, assim como terminava com uma apresentação clara da marca e do logotipo.",
        "instruction":"",
        "_pageLevelProgress": {
          "_isEnabled": false
        }
    },
    {
        "_id":"c-341a",
        "_parentId":"b-340",
        "_type":"component",
        "_component":"text",
        "_classes":"",
        "_layout":"full",
        "title":"Título",
        "displayTitle":"",
        "body":"<div class='leftDiv3colText textPaddingRight'>TVC original</div><!-- leftDiv3colText end --><div class='centerDiv3colText'>Otimizado para dispositivos móveis<br>(20 s)</div><!-- centerDiv3colText end --><div class='rightDiv3colText textPaddingLeft'>Otimizado para dispositivos móveis<br>(15 s)</div><!-- rightDiv3colText end --><br>",
        "instruction":"",
        "_pageLevelProgress": {
            "_isEnabled": false
        }
    },
    {
        "_id":"c-342",
        "_parentId":"b-340",
        "_type":"component",
        "_component":"media",
        "_classes":"",
        "_layout":"full",
        "title":"",
        "displayTitle": "",
        "body": "",
        "instruction": "",
        "_setCompletionOn":"inview",
        "_useClosedCaptions":false,
        "_media": {
            "width":"768",
                "height":"431",
                "mp4": "course/en/images/04_applying_craft/samsung.mp4"
        },
        "_playerOptions": {
            "poster": "course/en/images/04_applying_craft/samsung_poster.png",
            "showPosterWhenEnded": false,
            "defaultVideoWidth": 768,
            "defaultVideoHeight": 431,
            "videoWidth": -1,
            "videoHeight": -1,
            "defaultAudioWidth": 768,
            "defaultAudioHeight": 30,
            "defaultSeekBackwardInterval": "(media.duration * 0.05)",
            "defaultSeekForwardInterval": "(media.duration * 0.05)",
            "audioWidth": -1,
            "audioHeight": -1,
            "startVolume": 0.8,
            "loop": false,
            "autoRewind": true,
            "enableAutosize": true,
            "alwaysShowHours": false,
            "showTimecodeFrameCount": false,
            "framesPerSecond": 25,
            "autosizeProgress" : true,
            "alwaysShowControls": true,
            "hideVideoControlsOnLoad": false,
            "clickToPlayPause": true,
            "iPadUseNativeControls": false,
            "iPhoneUseNativeControls": false,
            "AndroidUseNativeControls": false,
            "features": ["playpause","current","progress","duration","tracks","volume","fullscreen"],
            "isVideo": true,
            "enableKeyboard": true,
            "pauseOtherPlayers": true,
            "startLanguage": "",
            "tracksText": "mejs.i18n.t('Captions/Subtitles')",
            "hideCaptionsButtonWhenEmpty": true,
            "toggleCaptionsButtonWhenOnlyOne": false,
            "slidesSelector": "",
            "autoPlay": true
        },
        "_pageLevelProgress": {
          "_isEnabled": false
        }
    },
    {
        "_id":"c-343",
        "_parentId":"b-340",
        "_type":"component",
        "_component":"text",
        "_classes":"",
        "_layout":"full",
        "title":"",
        "displayTitle":"",
        "body":"<br>",
        "instruction":"",
        "_pageLevelProgress": {
          "_isEnabled": false
        }
    },
    {
        "_id":"c-350",
        "_parentId":"b-350",
        "_type":"component",
        "_delay":"200",
        "_color":"#F8F8F8",
        "_classes":"",
        "_component":"arrowbox",
        "_layout":"full",
        "title":"Arcos de história",
        "displayTitle":"",
        "body":"<div style='margin-left:5%; margin-right:5%; height:100%; color:#000000;'><h2>Arcos de história</h2><br>Experimente com novas abordagens além de um arco de história tradicional.<br><br><ul><li><b>Experimente com a velocidade</b><br>A velocidade com a qual consumimos o conteúdo no celular aumentou. As pessoas estão deslumbradas com elementos visuais velozes, por isso, desafie o que puder: quanto conteúdo elas podem ler ou entender em um curto período de tempo?</li><br><li><b>Comece pelo fim</b><br>Mude a história e dê uma reviravolta para veicular a mensagem mais rapidamente. E se você começasse com o ponto principal?</li><br><li><b>Crie um ritmo ou uma “frequência”</b><br>Criar ritmo visual ou repetição pode dar ao seu vídeo o mesmo ritmo envolvente geralmente oferecido pelo som em um comercial de TV.</li></ul></div>",
        "_popupBody":"",
        "_popupTitle":"",
        "instruction":"",
        "_pageLevelProgress": {
            "_isEnabled": true
        }
    },
    {
        "_id":"c-351",
        "_parentId":"b-350",
        "_type":"component",
        "_component":"text",
        "_classes":"",
        "_layout":"full",
        "title":"Toyota",
        "displayTitle":"",
        "body":"Vejamos o TVC original da Toyota e o vídeo otimizado para dispositivos móveis.  <br><br>No vídeo otimizado para dispositivos móveis, a Toyota jogou com a velocidade e combinou fragmentos de vídeo curtos e texto para exibir e destacar rapidamente os recursos no novo Corolla Altis.",
        "instruction":"",
        "_pageLevelProgress": {
          "_isEnabled": false
        }
    },
    {
        "_id":"c-352",
        "_parentId":"b-351",
        "_type":"component",
        "_component":"text",
        "_classes":"",
        "_layout":"full",
        "title":"Título",
        "displayTitle":"",
        "body":"<div class='leftDiv2colText textPaddingRight'>TVC original</div><!-- leftDiv2colText end --><div class='rightDiv2colText textPaddingLeft'>Otimizado para dispositivos móveis<br>(15 s)</div><!-- rightDiv2colText end -->",
        "instruction":"",
        "_pageLevelProgress": {
            "_isEnabled": false
        }
    },
    {
        "_id":"c-355",
        "_parentId":"b-352",
        "_type":"component",
        "_component":"media",
        "_classes":"",
        "_layout":"full",
        "title":"",
        "displayTitle": "",
        "body": "",
        "instruction": "",
        "_setCompletionOn":"inview",
        "_useClosedCaptions":false,
        "_media": {
            "width":"768",
                "height":"431",
                "mp4": "course/en/images/04_applying_craft/toyota.mp4"
        },
        "_playerOptions": {
            "poster": "course/en/images/04_applying_craft/toyota_poster.png",
            "showPosterWhenEnded": false,
            "defaultVideoWidth": 768,
            "defaultVideoHeight": 431,
            "videoWidth": -1,
            "videoHeight": -1,
            "defaultAudioWidth": 768,
            "defaultAudioHeight": 30,
            "defaultSeekBackwardInterval": "(media.duration * 0.05)",
            "defaultSeekForwardInterval": "(media.duration * 0.05)",
            "audioWidth": -1,
            "audioHeight": -1,
            "startVolume": 0.8,
            "loop": false,
            "autoRewind": true,
            "enableAutosize": true,
            "alwaysShowHours": false,
            "showTimecodeFrameCount": false,
            "framesPerSecond": 25,
            "autosizeProgress" : true,
            "alwaysShowControls": true,
            "hideVideoControlsOnLoad": false,
            "clickToPlayPause": true,
            "iPadUseNativeControls": false,
            "iPhoneUseNativeControls": false,
            "AndroidUseNativeControls": false,
            "features": ["playpause","current","progress","duration","tracks","volume","fullscreen"],
            "isVideo": true,
            "enableKeyboard": true,
            "pauseOtherPlayers": true,
            "startLanguage": "",
            "tracksText": "mejs.i18n.t('Captions/Subtitles')",
            "hideCaptionsButtonWhenEmpty": true,
            "toggleCaptionsButtonWhenOnlyOne": false,
            "slidesSelector": "",
            "autoPlay": true
        },
        "_pageLevelProgress": {
          "_isEnabled": false
        }
    },
    {
        "_id":"c-356",
        "_parentId":"b-352",
        "_type":"component",
        "_component":"text",
        "_classes":"",
        "_layout":"full",
        "title":"",
        "displayTitle":"",
        "body":"<br>",
        "instruction":"",
        "_pageLevelProgress": {
          "_isEnabled": false
        }
    },
    {
        "_id":"c-360",
        "_parentId":"b-355",
        "_type":"component",
        "_delay":"200",
        "_color":"#F8F8F8",
        "_classes":"",
        "_component":"arrowbox",
        "_layout":"full",
        "title":"Experimente",
        "displayTitle":"",
        "body":"<div style='margin-left:5%; margin-right:5%; height:100%; color:#000000;'><h2>Experimente</h2><br>Veja com objetividade seu TVC como uma coleção de ativos, ao invés de uma narrativa.<br><br><ul><li>Experimente diferentes formatos e elementos (usando 3D e apelo visual).</li><li>Considere criar vídeos curtos em loop que chamam a atenção, divertem e têm impacto.</li></ul></div>",
        "_popupBody":"",
        "_popupTitle":"",
        "instruction":"",
        "_pageLevelProgress": {
            "_isEnabled": true
        }
    },
    {
        "_id":"c-361",
        "_parentId":"b-355",
        "_type":"component",
        "_component":"text",
        "_classes":"",
        "_layout":"full",
        "title":"Toyota",
        "displayTitle":"",
        "body":"O McDonald's da Malásia conseguiu transformar seus ativos do TVC original em seis anúncios otimizados para celular.  Eles incluíram vários formatos diferentes, como GIF de vídeo, apresentação multimídia e carrossel de vídeo.",
        "instruction":"",
        "_pageLevelProgress": {
          "_isEnabled": false
        }
    },
    {
        "_id":"c-360a",
        "_parentId":"b-360",
        "_type":"component",
        "_component":"text",
        "_classes":"",
        "_layout":"full",
        "title":"Título",
        "displayTitle":"",
        "body":"<div class='leftDiv3colText textPaddingRight'>TVC original</div><!-- leftDiv3colText end --><div class='centerDiv3colText'>Otimizado para dispositivos móveis<br>(13 s)</div><!-- centerDiv3colText end --><div class='rightDiv3colText textPaddingLeft'>GIF de vídeo</div><!-- rightDiv3colText end -->",
        "instruction":"",
        "_pageLevelProgress": {
          "_isEnabled": false
        }
    },
    {
        "_id":"c-365",
        "_parentId":"b-365",
        "_type":"component",
        "_component":"media",
        "_classes":"",
        "_layout":"full",
        "title":"",
        "displayTitle": "",
        "body": "",
        "instruction": "",
        "_setCompletionOn":"inview",
        "_useClosedCaptions":false,
        "_media": {
            "width":"768",
                "height":"431",
                "mp4": "course/en/images/04_applying_craft/mcdonalds1.mp4"
        },
        "_playerOptions": {
            "poster": "course/en/images/04_applying_craft/mcdonalds1_poster.png",
            "showPosterWhenEnded": false,
            "defaultVideoWidth": 768,
            "defaultVideoHeight": 431,
            "videoWidth": -1,
            "videoHeight": -1,
            "defaultAudioWidth": 768,
            "defaultAudioHeight": 30,
            "defaultSeekBackwardInterval": "(media.duration * 0.05)",
            "defaultSeekForwardInterval": "(media.duration * 0.05)",
            "audioWidth": -1,
            "audioHeight": -1,
            "startVolume": 0.8,
            "loop": false,
            "autoRewind": true,
            "enableAutosize": true,
            "alwaysShowHours": false,
            "showTimecodeFrameCount": false,
            "framesPerSecond": 25,
            "autosizeProgress" : true,
            "alwaysShowControls": true,
            "hideVideoControlsOnLoad": false,
            "clickToPlayPause": true,
            "iPadUseNativeControls": false,
            "iPhoneUseNativeControls": false,
            "AndroidUseNativeControls": false,
            "features": ["playpause","current","progress","duration","tracks","volume","fullscreen"],
            "isVideo": true,
            "enableKeyboard": true,
            "pauseOtherPlayers": true,
            "startLanguage": "",
            "tracksText": "mejs.i18n.t('Captions/Subtitles')",
            "hideCaptionsButtonWhenEmpty": true,
            "toggleCaptionsButtonWhenOnlyOne": false,
            "slidesSelector": "",
            "autoPlay": true
        },
        "_pageLevelProgress": {
          "_isEnabled": false
        }
    },
    {
        "_id":"c-361a",
        "_parentId":"b-370",
        "_type":"component",
        "_component":"text",
        "_classes":"",
        "_layout":"full",
        "title":"Título",
        "displayTitle":"",
        "body":"<div class='leftDiv3colText textPaddingRight'>Otimizado para dispositivos móveis<br>(3 s)</div><!-- leftDiv3colText end --><div class='centerDiv3colText'>Otimizado para dispositivos móveis<br>(5 s)</div><!-- centerDiv3colText end --><div class='rightDiv3colText textPaddingLeft'>Apresentação multimídia</div><!-- rightDiv3colText end -->",
        "instruction":"",
        "_pageLevelProgress": {
          "_isEnabled": false
        }
    },
    {
        "_id":"c-362",
        "_parentId":"b-375",
        "_type":"component",
        "_component":"media",
        "_classes":"",
        "_layout":"full",
        "title":"",
        "displayTitle": "",
        "body": "",
        "instruction": "",
        "_setCompletionOn":"inview",
        "_useClosedCaptions":false,
        "_media": {
            "width":"768",
                "height":"431",
                "mp4": "course/en/images/04_applying_craft/mcdonalds2.mp4"
        },
        "_playerOptions": {
            "poster": "course/en/images/04_applying_craft/mcdonalds2_poster.png",
            "showPosterWhenEnded": false,
            "defaultVideoWidth": 768,
            "defaultVideoHeight": 431,
            "videoWidth": -1,
            "videoHeight": -1,
            "defaultAudioWidth": 768,
            "defaultAudioHeight": 30,
            "defaultSeekBackwardInterval": "(media.duration * 0.05)",
            "defaultSeekForwardInterval": "(media.duration * 0.05)",
            "audioWidth": -1,
            "audioHeight": -1,
            "startVolume": 0.8,
            "loop": false,
            "autoRewind": true,
            "enableAutosize": true,
            "alwaysShowHours": false,
            "showTimecodeFrameCount": false,
            "framesPerSecond": 25,
            "autosizeProgress" : true,
            "alwaysShowControls": true,
            "hideVideoControlsOnLoad": false,
            "clickToPlayPause": true,
            "iPadUseNativeControls": false,
            "iPhoneUseNativeControls": false,
            "AndroidUseNativeControls": false,
            "features": ["playpause","current","progress","duration","tracks","volume","fullscreen"],
            "isVideo": true,
            "enableKeyboard": true,
            "pauseOtherPlayers": true,
            "startLanguage": "",
            "tracksText": "mejs.i18n.t('Captions/Subtitles')",
            "hideCaptionsButtonWhenEmpty": true,
            "toggleCaptionsButtonWhenOnlyOne": false,
            "slidesSelector": "",
            "autoPlay": true
        },
        "_pageLevelProgress": {
          "_isEnabled": false
        }
    },
    {
        "_id":"c-363",
        "_parentId":"b-380",
        "_type":"component",
        "_component":"media",
        "_classes":"",
        "_layout":"full",
        "title":"",
        "displayTitle": "",
        "body": "<div style='text-align:center;'>Carrossel de vídeo</div>",
        "instruction": "",
        "_setCompletionOn":"inview",
        "_useClosedCaptions":false,
        "_media": {
            "width":"768",
                "height":"431",
                "mp4": "course/en/images/04_applying_craft/mcdonalds_carousel.mp4"
        },
        "_playerOptions": {
            "poster": "course/en/images/04_applying_craft/mcdonalds_carousel_poster.png",
            "showPosterWhenEnded": false,
            "defaultVideoWidth": 768,
            "defaultVideoHeight": 431,
            "videoWidth": -1,
            "videoHeight": -1,
            "defaultAudioWidth": 768,
            "defaultAudioHeight": 30,
            "defaultSeekBackwardInterval": "(media.duration * 0.05)",
            "defaultSeekForwardInterval": "(media.duration * 0.05)",
            "audioWidth": -1,
            "audioHeight": -1,
            "startVolume": 0.8,
            "loop": false,
            "autoRewind": true,
            "enableAutosize": true,
            "alwaysShowHours": false,
            "showTimecodeFrameCount": false,
            "framesPerSecond": 25,
            "autosizeProgress" : true,
            "alwaysShowControls": true,
            "hideVideoControlsOnLoad": false,
            "clickToPlayPause": true,
            "iPadUseNativeControls": false,
            "iPhoneUseNativeControls": false,
            "AndroidUseNativeControls": false,
            "features": ["playpause","current","progress","duration","tracks","volume","fullscreen"],
            "isVideo": true,
            "enableKeyboard": true,
            "pauseOtherPlayers": true,
            "startLanguage": "",
            "tracksText": "mejs.i18n.t('Captions/Subtitles')",
            "hideCaptionsButtonWhenEmpty": true,
            "toggleCaptionsButtonWhenOnlyOne": false,
            "slidesSelector": "",
            "autoPlay": true
        },
        "_pageLevelProgress": {
          "_isEnabled": false
        }
    },
    {
        "_id": "c-390",
        "_parentId": "b-390",
        "_type": "component",
        "_component": "co-jump",
        "_classes": "color-test",
        "_preLinkBody": "Vimos muito conteúdo neste curso.  Vamos fazer uma rápida ",
        "_linkBody": "Recapitulação",
        "_postLinkBody": ".",
        "_link": "#/id/co-250",
        "_graphic": "adapt/css/assets/icon_nextPage.png",
        "_pageLevelProgress": {
            "_isEnabled": false
        }
    },
    {
        "_id":"c-400",
        "_parentId":"b-400",
        "_type":"component",
        "_component":"text",
        "_classes":"",
        "_layout":"full",
        "title":"",
        "displayTitle":"",
        "body":"Os conceitos para o PockeTVC foram planejados para ajudar a readaptar seus ativos da TV ao ambiente móvel. Veja uma rápida recapitulação dos conceitos que você pode aplicar ao recriar seu conteúdo para o feed móvel.",
        "instruction":"",
        "_pageLevelProgress": {
            "_isEnabled": false
        }
    },
    {
        "_id":"c-401",
        "_parentId":"b-400",
        "_type":"component",
        "_component":"text",
        "_classes":"",
        "_layout":"full",
        "title":"Recapitulação",
        "displayTitle":"",
        "body":"<div style='overflow-x:auto;'><table class='table-style-6'><tr><td class='table-style-6' width='33.3%' style='text-align:left'></td><td class='table-style-6' width='33.3%' style='text-align:center; vertical-align: middle'><div style='color:#0c6bb5; font-weight: bold'>ALTERAÇÕES MENORES</div> tendem a levar a um <div style='color:#0c6bb5; font-weight: bold'>IMPACTO MENOR</div></td><td class='table-style-6' width='33.3%' style='text-align: center; vertical-align: middle'><div style='color:#0c6bb5; font-size: 25px; font-weight: bold; line-height: 100%'>ALTERAÇÕES MAIORES</div>tendem a ter um resultado com<div style='color:#0c6bb5; font-size: 35px; font-weight: bold; line-height: 100%'>IMPACTO MAIOR</div></td></tr><tr><td class='table-style-6' style='text-align:left'><b>Marca e mensagem</b></td><td class='table-style-6' style='text-align:left'>Adicione o logotipo como um hábito</td><td class='table-style-6' style='text-align:left'>Apresente a marca na história nos três primeiros segundos</td></tr><tr><td class='table-style-6' style='text-align:left'><b>Tipografia e legendas</b></td><td class='table-style-6' style='text-align:left'>Adicione legendas ao TVC original</td><td class='table-style-6' style='text-align:left'>Dê vida à história com itens dinâmicos e imagens</td></tr><tr><td class='table-style-6' style='text-align:left'><b>Cortes e proporções</b></td><td class='table-style-6' style='text-align:left'>Faça com que tenha 4:3 ou 1:1</td><td class='table-style-6' style='text-align:left'>Explore diferentes proporções, também com telas/grades divididas</td></tr><tr><td class='table-style-6' style='text-align:left'><b>Duração</b></td><td class='table-style-6' style='text-align:left'>Diminua o vídeo</td><td class='table-style-6' style='text-align:left'>Resuma a história</td></tr><tr><td class='table-style-6' style='text-align:left'><b>Arcos de história</b></td><td class='table-style-6' style='text-align:left'>Mantenha o arco de história original</td><td class='table-style-6' style='text-align:left'>Reformule a história para revelar a mensagem principal rapidamente</td></tr><tr><td class='table-style-6' style='text-align:left'><b>Experimente</b></td><td class='table-style-6' style='text-align:left'>Aproveite os produtos em toda a família de aplicativos e serviços do Facebook</td><td class='table-style-6' style='text-align:left'>Aproveite os produtos em toda a família de aplicativos e serviços do Facebook</td></tr></table><!-- table end --></div><!-- overflow-x:auto; end -->",
        "instruction":"",
        "_pageLevelProgress": {
            "_isEnabled": true
        }
    },
    {
        "_id":"c-490",
        "_parentId":"b-490",
        "_type":"component",
        "_component":"co-jump",
        "_classes":"color-test",
        "_autoComplete":true,
        "_preLinkBody":"Clique no botão abaixo para concluir o curso. Observação: <a href='#'>clique aqui</a> para conferir se as barras de status de cada módulo estão completas.<br>",
        "_linkBody":"<div style = 'text-align:center;padding:8px;'><button class='buttons-action'><b>TERMINEI O CURSO</b></button></div><br> ",
        "_postLinkBody":"",
        "_link":"",
        "_pageLevelProgress": {
            "_isEnabled": false
        }
    }


]
